Figures 1&2
…
How is the ePI connected to the human interactome?

#load data from Julia with internal / external degree per ePI protein
ePI_in_out_degree <- read_csv(my_intExt_degree_file, show_col_types = FALSE) %>% 
  dplyr::rename("Entrez" = "...1", "degree" = "overall degree", "degree_int" = "internal degree", "degree_ext" = "external degree")

## New names:
## • `` -> `...1`

#merch with yifrach_genes
ePI_in_out_degree %>% left_join(yifrach_genes, by=join_by(symbol == Gene))

## # A tibble: 174 × 7
##    Entrez degree degree_int degree_ext symbol DetectionFrequency FinalScore
##     <dbl>  <dbl>      <dbl>      <dbl> <chr>  <chr>                   <dbl>
##  1  11264      6          6          0 PXMP4  High                       28
##  2   9217     48          0         48 VAPB   Low                         2
##  3   9218     58          3         55 VAPA   Low                         2
##  4   2053      8          5          3 EPHX2  High                       26
##  5  10247     12          2         10 RIDA   Low                         4
##  6  10247     12          2         10 RIDA   Low                         3
##  7  55825     14         14          0 PECR   High                       24
##  8   8729      5          0          5 GBF1   Low                         4
##  9   3098     14          2         12 HK1    Low                         4
## 10   3099      5          0          5 HK2    Low                         4
## # ℹ 164 more rows
…
