Figure 4
…
#show n of TiPs 
tipNeighbors %>% 
  rowwise() %>% 
  mutate(n_interactors = length(unlist(str_split(pex_interactor, ",")))) %>% 
  ungroup %>% 
  arrange(desc(n_interactors))

## # A tibble: 4,037 × 4
##    TiP   tissue            pex_interactor                          n_interactors
##    <chr> <chr>             <chr>                                           <int>
##  1 CFTR  pancreas          VAPB, VAPA, TTC1, HSPD1, LDHA, ACSL4, …            16
##  2 PDHA1 tongue            ABCD3, HSD17B4, RHOA, ACAT1, SCP2, HSD…            12
##  3 PDHA1 heart muscle      ABCD3, HSD17B4, RHOA, ACAT1, SCP2, HSD…            12
##  4 PDHA1 liver             ABCD3, HSD17B4, RHOA, ACAT1, SCP2, HSD…            12
##  5 PDHA1 skeletal muscle   ABCD3, HSD17B4, RHOA, ACAT1, SCP2, HSD…            12
##  6 PDHA1 kidney            ABCD3, HSD17B4, RHOA, ACAT1, SCP2, HSD…            12
##  7 PDHA1 parathyroid gland ABCD3, HSD17B4, RHOA, ACAT1, SCP2, HSD…            12
##  8 VCAM1 tonsil            HSPD1, VAPA, LDHA, GSTK1, ACAT1, VIM, …            12
##  9 VCAM1 ovary             HSPD1, VAPA, LDHA, GSTK1, ACAT1, VIM, …            12
## 10 VCAM1 spleen            HSPD1, VAPA, LDHA, GSTK1, ACAT1, VIM, …            12
## # ℹ 4,027 more rows
…
